<svg xmlns="http://www.w3.org/2000/svg" xmlns:xlink="http://www.w3.org/1999/xlink" width="1925.52" height="1080.021" viewBox="0 0 1925.52 1080.021">
  <defs>
    <clipPath id="clip-path">
      <path id="Path_4897" data-name="Path 4897" d="M100.864.015c54.712-.985,98.267,45.763,97.283,104.414S152.011,211.423,97.3,212.408-.968,166.645.016,107.994,46.152,1,100.864.015Z" transform="translate(45.529 241.667) rotate(-103.283)" fill="none"/>
    </clipPath>
    <clipPath id="clip-path-2">
      <ellipse id="Ellipse_57" data-name="Ellipse 57" cx="66.6" cy="61.62" rx="66.6" ry="61.62" fill="none"/>
    </clipPath>
  </defs>
  <g id="hero_banner_-_VOV" data-name="hero banner - VOV" transform="translate(10787.52 -1826)">
    <g id="Rectangle_2970" data-name="Rectangle 2970" transform="translate(-10782 1826)" fill="#fff" stroke="#707070" stroke-width="1">
      <rect width="1920" height="1080" stroke="none"/>
      <rect x="0.5" y="0.5" width="1919" height="1079" fill="none"/>
    </g>
    <g id="Corporate" transform="translate(-10709.493 2211.793)">
      <g id="Group_5389" data-name="Group 5389" transform="translate(-73.507 -160.189)" opacity="0.39">
        <path id="Path_4739" data-name="Path 4739" d="M2269.123,432.171c83.49-16.3,94.251-96.015,215.493,51.267,107.753,130.9,258.711,106.257,336.119,78.257,129.275-46.762,301.187-73.105,357.194,56.912s-31.669,239.4,239.436,298.684,216.1,284.145-51.511,315.122-337.145-54.722-577.942-23.869c-244.08,31.273,115.934,33.105-519.155,41.891Z" transform="translate(-2269.123 -396.018)" fill="#ccc" opacity="0.64"/>
        <path id="Path_4740" data-name="Path 4740" d="M2140,545.419c65.073,36.808,340.713,74.286,446.156-29.09,110.9-108.735,263.368-174.155,353.461-2.138s60.814,233.53,341.373,205.252c281.119-28.333,361.349,197.544,173.623,295.3-192.773,100.385-296.77,92.162-614.915,117.137-105.34-2.812-260.706-2.326-389.831,0-111.919,2.016-230.514,7.076-278.079-57.651a27.782,27.782,0,0,1-4.074-7.572c-1.9-5.408-13.279-15.378-17.337-24.549C2115.731,875.86,2140,545.419,2140,545.419Z" transform="translate(-2136.254 -295.488)" fill="#707070" opacity="0.31"/>
      </g>
      <g id="Group_5399" data-name="Group 5399" transform="translate(161.402 198.525)" opacity="0.24" style="mix-blend-mode: overlay;isolation: isolate">
        <g id="Group_5392" data-name="Group 5392" transform="translate(0 0)">
          <g id="Group_5391" data-name="Group 5391" clip-path="url(#clip-path)">
            <g id="Group_5390" data-name="Group 5390" transform="translate(-377.177 -40.669)">
              <line id="Line_48" data-name="Line 48" x2="349.112" y2="323.006" transform="translate(657.512)" fill="none" stroke="#fff" stroke-miterlimit="10" stroke-width="1.594"/>
              <line id="Line_49" data-name="Line 49" x2="349.112" y2="323.006" transform="translate(639.248)" fill="none" stroke="#fff" stroke-miterlimit="10" stroke-width="1.594"/>
              <line id="Line_50" data-name="Line 50" x2="349.112" y2="323.006" transform="translate(620.984)" fill="none" stroke="#fff" stroke-miterlimit="10" stroke-width="1.594"/>
              <line id="Line_51" data-name="Line 51" x2="349.112" y2="323.006" transform="translate(602.72)" fill="none" stroke="#fff" stroke-miterlimit="10" stroke-width="1.594"/>
              <line id="Line_52" data-name="Line 52" x2="349.112" y2="323.006" transform="translate(584.456)" fill="none" stroke="#fff" stroke-miterlimit="10" stroke-width="1.594"/>
              <line id="Line_53" data-name="Line 53" x2="349.112" y2="323.006" transform="translate(566.191)" fill="none" stroke="#fff" stroke-miterlimit="10" stroke-width="1.594"/>
              <line id="Line_54" data-name="Line 54" x2="349.112" y2="323.006" transform="translate(547.927)" fill="none" stroke="#fff" stroke-miterlimit="10" stroke-width="1.594"/>
              <line id="Line_55" data-name="Line 55" x2="349.112" y2="323.006" transform="translate(529.663)" fill="none" stroke="#fff" stroke-miterlimit="10" stroke-width="1.594"/>
              <line id="Line_56" data-name="Line 56" x2="349.112" y2="323.006" transform="translate(511.399)" fill="none" stroke="#fff" stroke-miterlimit="10" stroke-width="1.594"/>
              <line id="Line_57" data-name="Line 57" x2="349.112" y2="323.006" transform="translate(493.134)" fill="none" stroke="#fff" stroke-miterlimit="10" stroke-width="1.594"/>
              <line id="Line_58" data-name="Line 58" x2="349.112" y2="323.006" transform="translate(474.87)" fill="none" stroke="#fff" stroke-miterlimit="10" stroke-width="1.594"/>
              <line id="Line_59" data-name="Line 59" x2="349.112" y2="323.006" transform="translate(456.606)" fill="none" stroke="#fff" stroke-miterlimit="10" stroke-width="1.594"/>
              <line id="Line_60" data-name="Line 60" x2="349.112" y2="323.006" transform="translate(438.342)" fill="none" stroke="#fff" stroke-miterlimit="10" stroke-width="1.594"/>
              <line id="Line_61" data-name="Line 61" x2="349.112" y2="323.006" transform="translate(420.078)" fill="none" stroke="#fff" stroke-miterlimit="10" stroke-width="1.594"/>
              <line id="Line_62" data-name="Line 62" x2="349.112" y2="323.006" transform="translate(401.813)" fill="none" stroke="#fff" stroke-miterlimit="10" stroke-width="1.594"/>
              <line id="Line_63" data-name="Line 63" x2="349.112" y2="323.006" transform="translate(383.549)" fill="none" stroke="#fff" stroke-miterlimit="10" stroke-width="1.594"/>
              <line id="Line_64" data-name="Line 64" x2="349.112" y2="323.006" transform="translate(365.285)" fill="none" stroke="#fff" stroke-miterlimit="10" stroke-width="1.594"/>
              <line id="Line_65" data-name="Line 65" x2="349.112" y2="323.006" transform="translate(347.021)" fill="none" stroke="#fff" stroke-miterlimit="10" stroke-width="1.594"/>
              <line id="Line_66" data-name="Line 66" x2="349.112" y2="323.006" transform="translate(328.756)" fill="none" stroke="#fff" stroke-miterlimit="10" stroke-width="1.594"/>
              <line id="Line_67" data-name="Line 67" x2="349.112" y2="323.006" transform="translate(310.492)" fill="none" stroke="#fff" stroke-miterlimit="10" stroke-width="1.594"/>
              <line id="Line_68" data-name="Line 68" x2="349.112" y2="323.006" transform="translate(292.228)" fill="none" stroke="#fff" stroke-miterlimit="10" stroke-width="1.594"/>
              <line id="Line_69" data-name="Line 69" x2="349.112" y2="323.006" transform="translate(273.964)" fill="none" stroke="#fff" stroke-miterlimit="10" stroke-width="1.594"/>
              <line id="Line_70" data-name="Line 70" x2="349.112" y2="323.006" transform="translate(255.7)" fill="none" stroke="#fff" stroke-miterlimit="10" stroke-width="1.594"/>
              <line id="Line_71" data-name="Line 71" x2="349.112" y2="323.006" transform="translate(237.435)" fill="none" stroke="#fff" stroke-miterlimit="10" stroke-width="1.594"/>
              <line id="Line_72" data-name="Line 72" x2="349.112" y2="323.006" transform="translate(219.171)" fill="none" stroke="#fff" stroke-miterlimit="10" stroke-width="1.594"/>
              <line id="Line_73" data-name="Line 73" x2="349.112" y2="323.006" transform="translate(200.907)" fill="none" stroke="#fff" stroke-miterlimit="10" stroke-width="1.594"/>
              <line id="Line_74" data-name="Line 74" x2="349.112" y2="323.006" transform="translate(182.643)" fill="none" stroke="#fff" stroke-miterlimit="10" stroke-width="1.594"/>
              <line id="Line_75" data-name="Line 75" x2="349.112" y2="323.006" transform="translate(164.378)" fill="none" stroke="#fff" stroke-miterlimit="10" stroke-width="1.594"/>
              <line id="Line_76" data-name="Line 76" x2="349.112" y2="323.006" transform="translate(146.114)" fill="none" stroke="#fff" stroke-miterlimit="10" stroke-width="1.594"/>
              <line id="Line_77" data-name="Line 77" x2="349.112" y2="323.006" transform="translate(127.85)" fill="none" stroke="#fff" stroke-miterlimit="10" stroke-width="1.594"/>
              <line id="Line_78" data-name="Line 78" x2="349.112" y2="323.006" transform="translate(109.586)" fill="none" stroke="#fff" stroke-miterlimit="10" stroke-width="1.594"/>
              <line id="Line_79" data-name="Line 79" x2="349.112" y2="323.006" transform="translate(91.322)" fill="none" stroke="#fff" stroke-miterlimit="10" stroke-width="1.594"/>
              <line id="Line_80" data-name="Line 80" x2="349.112" y2="323.006" transform="translate(73.057)" fill="none" stroke="#fff" stroke-miterlimit="10" stroke-width="1.594"/>
              <line id="Line_81" data-name="Line 81" x2="349.112" y2="323.006" transform="translate(54.793)" fill="none" stroke="#fff" stroke-miterlimit="10" stroke-width="1.594"/>
              <line id="Line_82" data-name="Line 82" x2="349.112" y2="323.006" transform="translate(36.529)" fill="none" stroke="#fff" stroke-miterlimit="10" stroke-width="1.594"/>
              <line id="Line_83" data-name="Line 83" x2="349.112" y2="323.006" transform="translate(18.264)" fill="none" stroke="#fff" stroke-miterlimit="10" stroke-width="1.594"/>
              <line id="Line_84" data-name="Line 84" x2="349.112" y2="323.006" fill="none" stroke="#fff" stroke-miterlimit="10" stroke-width="1.594"/>
            </g>
          </g>
        </g>
        <g id="Group_5395" data-name="Group 5395" transform="translate(437.017 170.956)">
          <g id="Group_5394" data-name="Group 5394" clip-path="url(#clip-path-2)">
            <g id="Group_5393" data-name="Group 5393" transform="translate(-436.712 -99.883)">
              <line id="Line_85" data-name="Line 85" x2="349.112" y2="323.005" transform="translate(657.512)" fill="none" stroke="#fff" stroke-miterlimit="10" stroke-width="1.594"/>
              <line id="Line_86" data-name="Line 86" x2="349.112" y2="323.005" transform="translate(639.248)" fill="none" stroke="#fff" stroke-miterlimit="10" stroke-width="1.594"/>
              <line id="Line_87" data-name="Line 87" x2="349.112" y2="323.005" transform="translate(620.984)" fill="none" stroke="#fff" stroke-miterlimit="10" stroke-width="1.594"/>
              <line id="Line_88" data-name="Line 88" x2="349.112" y2="323.005" transform="translate(602.719)" fill="none" stroke="#fff" stroke-miterlimit="10" stroke-width="1.594"/>
              <line id="Line_89" data-name="Line 89" x2="349.112" y2="323.005" transform="translate(584.455)" fill="none" stroke="#fff" stroke-miterlimit="10" stroke-width="1.594"/>
              <line id="Line_90" data-name="Line 90" x2="349.112" y2="323.005" transform="translate(566.191)" fill="none" stroke="#fff" stroke-miterlimit="10" stroke-width="1.594"/>
              <line id="Line_91" data-name="Line 91" x2="349.112" y2="323.005" transform="translate(547.927)" fill="none" stroke="#fff" stroke-miterlimit="10" stroke-width="1.594"/>
              <line id="Line_92" data-name="Line 92" x2="349.112" y2="323.005" transform="translate(529.663)" fill="none" stroke="#fff" stroke-miterlimit="10" stroke-width="1.594"/>
              <line id="Line_93" data-name="Line 93" x2="349.112" y2="323.005" transform="translate(511.398)" fill="none" stroke="#fff" stroke-miterlimit="10" stroke-width="1.594"/>
              <line id="Line_94" data-name="Line 94" x2="349.112" y2="323.005" transform="translate(493.134)" fill="none" stroke="#fff" stroke-miterlimit="10" stroke-width="1.594"/>
              <line id="Line_95" data-name="Line 95" x2="349.112" y2="323.005" transform="translate(474.87)" fill="none" stroke="#fff" stroke-miterlimit="10" stroke-width="1.594"/>
              <line id="Line_96" data-name="Line 96" x2="349.112" y2="323.005" transform="translate(456.606)" fill="none" stroke="#fff" stroke-miterlimit="10" stroke-width="1.594"/>
              <line id="Line_97" data-name="Line 97" x2="349.112" y2="323.005" transform="translate(438.341)" fill="none" stroke="#fff" stroke-miterlimit="10" stroke-width="1.594"/>
              <line id="Line_98" data-name="Line 98" x2="349.112" y2="323.005" transform="translate(420.077)" fill="none" stroke="#fff" stroke-miterlimit="10" stroke-width="1.594"/>
              <line id="Line_99" data-name="Line 99" x2="349.112" y2="323.005" transform="translate(401.813)" fill="none" stroke="#fff" stroke-miterlimit="10" stroke-width="1.594"/>
              <line id="Line_100" data-name="Line 100" x2="349.112" y2="323.005" transform="translate(383.549)" fill="none" stroke="#fff" stroke-miterlimit="10" stroke-width="1.594"/>
              <line id="Line_101" data-name="Line 101" x2="349.112" y2="323.005" transform="translate(365.284)" fill="none" stroke="#fff" stroke-miterlimit="10" stroke-width="1.594"/>
              <line id="Line_102" data-name="Line 102" x2="349.112" y2="323.005" transform="translate(347.02)" fill="none" stroke="#fff" stroke-miterlimit="10" stroke-width="1.594"/>
              <line id="Line_103" data-name="Line 103" x2="349.112" y2="323.005" transform="translate(328.756)" fill="none" stroke="#fff" stroke-miterlimit="10" stroke-width="1.594"/>
              <line id="Line_104" data-name="Line 104" x2="349.112" y2="323.005" transform="translate(310.492)" fill="none" stroke="#fff" stroke-miterlimit="10" stroke-width="1.594"/>
              <line id="Line_105" data-name="Line 105" x2="349.112" y2="323.005" transform="translate(292.228)" fill="none" stroke="#fff" stroke-miterlimit="10" stroke-width="1.594"/>
              <line id="Line_106" data-name="Line 106" x2="349.112" y2="323.005" transform="translate(273.963)" fill="none" stroke="#fff" stroke-miterlimit="10" stroke-width="1.594"/>
              <line id="Line_107" data-name="Line 107" x2="349.112" y2="323.005" transform="translate(255.699)" fill="none" stroke="#fff" stroke-miterlimit="10" stroke-width="1.594"/>
              <line id="Line_108" data-name="Line 108" x2="349.112" y2="323.005" transform="translate(237.435)" fill="none" stroke="#fff" stroke-miterlimit="10" stroke-width="1.594"/>
              <line id="Line_109" data-name="Line 109" x2="349.112" y2="323.005" transform="translate(219.17)" fill="none" stroke="#fff" stroke-miterlimit="10" stroke-width="1.594"/>
              <line id="Line_110" data-name="Line 110" x2="349.112" y2="323.005" transform="translate(200.906)" fill="none" stroke="#fff" stroke-miterlimit="10" stroke-width="1.594"/>
              <line id="Line_111" data-name="Line 111" x2="349.112" y2="323.005" transform="translate(182.642)" fill="none" stroke="#fff" stroke-miterlimit="10" stroke-width="1.594"/>
              <line id="Line_112" data-name="Line 112" x2="349.112" y2="323.005" transform="translate(164.378)" fill="none" stroke="#fff" stroke-miterlimit="10" stroke-width="1.594"/>
              <line id="Line_113" data-name="Line 113" x2="349.112" y2="323.005" transform="translate(146.114)" fill="none" stroke="#fff" stroke-miterlimit="10" stroke-width="1.594"/>
              <line id="Line_114" data-name="Line 114" x2="349.112" y2="323.005" transform="translate(127.849)" fill="none" stroke="#fff" stroke-miterlimit="10" stroke-width="1.594"/>
              <line id="Line_115" data-name="Line 115" x2="349.112" y2="323.005" transform="translate(109.585)" fill="none" stroke="#fff" stroke-miterlimit="10" stroke-width="1.594"/>
              <line id="Line_116" data-name="Line 116" x2="349.112" y2="323.005" transform="translate(91.321)" fill="none" stroke="#fff" stroke-miterlimit="10" stroke-width="1.594"/>
              <line id="Line_117" data-name="Line 117" x2="349.112" y2="323.005" transform="translate(73.057)" fill="none" stroke="#fff" stroke-miterlimit="10" stroke-width="1.594"/>
              <line id="Line_118" data-name="Line 118" x2="349.112" y2="323.005" transform="translate(54.793)" fill="none" stroke="#fff" stroke-miterlimit="10" stroke-width="1.594"/>
              <line id="Line_119" data-name="Line 119" x2="349.112" y2="323.005" transform="translate(36.528)" fill="none" stroke="#fff" stroke-miterlimit="10" stroke-width="1.594"/>
              <line id="Line_120" data-name="Line 120" x2="349.112" y2="323.005" transform="translate(18.264)" fill="none" stroke="#fff" stroke-miterlimit="10" stroke-width="1.594"/>
              <line id="Line_121" data-name="Line 121" x2="349.112" y2="323.005" fill="none" stroke="#fff" stroke-miterlimit="10" stroke-width="1.594"/>
            </g>
          </g>
        </g>
        <g id="Group_5398" data-name="Group 5398" transform="translate(-116.95 288.756)">
          <g id="Group_5397" data-name="Group 5397" clip-path="url(#clip-path-2)">
            <g id="Group_5396" data-name="Group 5396" transform="translate(-436.712 -99.883)">
              <line id="Line_122" data-name="Line 122" x2="349.112" y2="323.005" transform="translate(657.512)" fill="none" stroke="#fff" stroke-miterlimit="10" stroke-width="1.594"/>
              <line id="Line_123" data-name="Line 123" x2="349.112" y2="323.005" transform="translate(639.248)" fill="none" stroke="#fff" stroke-miterlimit="10" stroke-width="1.594"/>
              <line id="Line_124" data-name="Line 124" x2="349.112" y2="323.005" transform="translate(620.984)" fill="none" stroke="#fff" stroke-miterlimit="10" stroke-width="1.594"/>
              <line id="Line_125" data-name="Line 125" x2="349.112" y2="323.005" transform="translate(602.719)" fill="none" stroke="#fff" stroke-miterlimit="10" stroke-width="1.594"/>
              <line id="Line_126" data-name="Line 126" x2="349.112" y2="323.005" transform="translate(584.456)" fill="none" stroke="#fff" stroke-miterlimit="10" stroke-width="1.594"/>
              <line id="Line_127" data-name="Line 127" x2="349.112" y2="323.005" transform="translate(566.191)" fill="none" stroke="#fff" stroke-miterlimit="10" stroke-width="1.594"/>
              <line id="Line_128" data-name="Line 128" x2="349.112" y2="323.005" transform="translate(547.927)" fill="none" stroke="#fff" stroke-miterlimit="10" stroke-width="1.594"/>
              <line id="Line_129" data-name="Line 129" x2="349.112" y2="323.005" transform="translate(529.663)" fill="none" stroke="#fff" stroke-miterlimit="10" stroke-width="1.594"/>
              <line id="Line_130" data-name="Line 130" x2="349.112" y2="323.005" transform="translate(511.398)" fill="none" stroke="#fff" stroke-miterlimit="10" stroke-width="1.594"/>
              <line id="Line_131" data-name="Line 131" x2="349.112" y2="323.005" transform="translate(493.134)" fill="none" stroke="#fff" stroke-miterlimit="10" stroke-width="1.594"/>
              <line id="Line_132" data-name="Line 132" x2="349.112" y2="323.005" transform="translate(474.87)" fill="none" stroke="#fff" stroke-miterlimit="10" stroke-width="1.594"/>
              <line id="Line_133" data-name="Line 133" x2="349.112" y2="323.005" transform="translate(456.605)" fill="none" stroke="#fff" stroke-miterlimit="10" stroke-width="1.594"/>
              <line id="Line_134" data-name="Line 134" x2="349.112" y2="323.005" transform="translate(438.342)" fill="none" stroke="#fff" stroke-miterlimit="10" stroke-width="1.594"/>
              <line id="Line_135" data-name="Line 135" x2="349.112" y2="323.005" transform="translate(420.077)" fill="none" stroke="#fff" stroke-miterlimit="10" stroke-width="1.594"/>
              <line id="Line_136" data-name="Line 136" x2="349.112" y2="323.005" transform="translate(401.813)" fill="none" stroke="#fff" stroke-miterlimit="10" stroke-width="1.594"/>
              <line id="Line_137" data-name="Line 137" x2="349.112" y2="323.005" transform="translate(383.549)" fill="none" stroke="#fff" stroke-miterlimit="10" stroke-width="1.594"/>
              <line id="Line_138" data-name="Line 138" x2="349.112" y2="323.005" transform="translate(365.284)" fill="none" stroke="#fff" stroke-miterlimit="10" stroke-width="1.594"/>
              <line id="Line_139" data-name="Line 139" x2="349.112" y2="323.005" transform="translate(347.021)" fill="none" stroke="#fff" stroke-miterlimit="10" stroke-width="1.594"/>
              <line id="Line_140" data-name="Line 140" x2="349.112" y2="323.005" transform="translate(328.756)" fill="none" stroke="#fff" stroke-miterlimit="10" stroke-width="1.594"/>
              <line id="Line_141" data-name="Line 141" x2="349.112" y2="323.005" transform="translate(310.492)" fill="none" stroke="#fff" stroke-miterlimit="10" stroke-width="1.594"/>
              <line id="Line_142" data-name="Line 142" x2="349.112" y2="323.005" transform="translate(292.228)" fill="none" stroke="#fff" stroke-miterlimit="10" stroke-width="1.594"/>
              <line id="Line_143" data-name="Line 143" x2="349.112" y2="323.005" transform="translate(273.963)" fill="none" stroke="#fff" stroke-miterlimit="10" stroke-width="1.594"/>
              <line id="Line_144" data-name="Line 144" x2="349.112" y2="323.005" transform="translate(255.7)" fill="none" stroke="#fff" stroke-miterlimit="10" stroke-width="1.594"/>
              <line id="Line_145" data-name="Line 145" x2="349.112" y2="323.005" transform="translate(237.435)" fill="none" stroke="#fff" stroke-miterlimit="10" stroke-width="1.594"/>
              <line id="Line_146" data-name="Line 146" x2="349.112" y2="323.005" transform="translate(219.17)" fill="none" stroke="#fff" stroke-miterlimit="10" stroke-width="1.594"/>
              <line id="Line_147" data-name="Line 147" x2="349.112" y2="323.005" transform="translate(200.907)" fill="none" stroke="#fff" stroke-miterlimit="10" stroke-width="1.594"/>
              <line id="Line_148" data-name="Line 148" x2="349.112" y2="323.005" transform="translate(182.642)" fill="none" stroke="#fff" stroke-miterlimit="10" stroke-width="1.594"/>
              <line id="Line_149" data-name="Line 149" x2="349.112" y2="323.005" transform="translate(164.378)" fill="none" stroke="#fff" stroke-miterlimit="10" stroke-width="1.594"/>
              <line id="Line_150" data-name="Line 150" x2="349.112" y2="323.005" transform="translate(146.114)" fill="none" stroke="#fff" stroke-miterlimit="10" stroke-width="1.594"/>
              <line id="Line_151" data-name="Line 151" x2="349.112" y2="323.005" transform="translate(127.849)" fill="none" stroke="#fff" stroke-miterlimit="10" stroke-width="1.594"/>
              <line id="Line_152" data-name="Line 152" x2="349.112" y2="323.005" transform="translate(109.586)" fill="none" stroke="#fff" stroke-miterlimit="10" stroke-width="1.594"/>
              <line id="Line_153" data-name="Line 153" x2="349.112" y2="323.005" transform="translate(91.321)" fill="none" stroke="#fff" stroke-miterlimit="10" stroke-width="1.594"/>
              <line id="Line_154" data-name="Line 154" x2="349.112" y2="323.005" transform="translate(73.057)" fill="none" stroke="#fff" stroke-miterlimit="10" stroke-width="1.594"/>
              <line id="Line_155" data-name="Line 155" x2="349.112" y2="323.005" transform="translate(54.793)" fill="none" stroke="#fff" stroke-miterlimit="10" stroke-width="1.594"/>
              <line id="Line_156" data-name="Line 156" x2="349.112" y2="323.005" transform="translate(36.528)" fill="none" stroke="#fff" stroke-miterlimit="10" stroke-width="1.594"/>
              <line id="Line_157" data-name="Line 157" x2="349.112" y2="323.005" transform="translate(18.264)" fill="none" stroke="#fff" stroke-miterlimit="10" stroke-width="1.594"/>
              <line id="Line_158" data-name="Line 158" x2="349.112" y2="323.005" fill="none" stroke="#fff" stroke-miterlimit="10" stroke-width="1.594"/>
            </g>
          </g>
        </g>
      </g>
      <path id="Path_4741" data-name="Path 4741" d="M2244.732,448.4a15.484,15.484,0,0,1,14.059-8.467,16.217,16.217,0,0,1,8.47,2.364,15.5,15.5,0,0,1,13.877-8.156,15.946,15.946,0,0,1,11.143,4.452,27.021,27.021,0,0,1,39.463.747,15.817,15.817,0,0,1,11.812-5.2c.169,0,.326.043.5.048,5.7-10.783,17.635-18.229,31.484-18.229,14.32,0,26.618,7.957,32.059,19.344a16.413,16.413,0,0,1,6.085-1.163c7.363,0,13.5,4.788,15.026,11.176a16.152,16.152,0,0,1,8.862-2.621,15.773,15.773,0,0,1,12.259,5.7Z" transform="translate(-1510.468 -349.2)" fill="#d1c4e9" opacity="0.3"/>
      <path id="Path_4898" data-name="Path 4898" d="M2244.732,453.261a17.805,17.805,0,0,1,16.167-9.737,18.649,18.649,0,0,1,9.74,2.719,17.823,17.823,0,0,1,15.957-9.379,18.336,18.336,0,0,1,12.813,5.119,31.073,31.073,0,0,1,45.379.859,18.187,18.187,0,0,1,13.583-5.978c.194,0,.375.049.57.056,6.555-12.4,20.279-20.962,36.2-20.962,16.467,0,30.609,9.15,36.865,22.244a18.874,18.874,0,0,1,7-1.338c8.467,0,15.523,5.506,17.279,12.852a18.573,18.573,0,0,1,10.19-3.014,18.138,18.138,0,0,1,14.1,6.559Z" transform="translate(-1181.253 -187.064)" fill="#d1c4e9" opacity="0.3"/>
      <path id="Path_5867" data-name="Path 5867" d="M2244.732,453.261a17.805,17.805,0,0,1,16.167-9.737,18.649,18.649,0,0,1,9.74,2.719,17.823,17.823,0,0,1,15.957-9.379,18.336,18.336,0,0,1,12.813,5.119,31.073,31.073,0,0,1,45.379.859,18.187,18.187,0,0,1,13.583-5.978c.194,0,.375.049.57.056,6.555-12.4,20.279-20.962,36.2-20.962,16.467,0,30.609,9.15,36.865,22.244a18.874,18.874,0,0,1,7-1.338c8.467,0,15.523,5.506,17.279,12.852a18.573,18.573,0,0,1,10.19-3.014,18.138,18.138,0,0,1,14.1,6.559Z" transform="translate(-1188.253 -286.064)" fill="#707070" opacity="0.3"/>
      <path id="Path_4742" data-name="Path 4742" d="M2629.607,481.886c-2.165-6.792-7.006-11.546-12.661-11.546a11.232,11.232,0,0,0-7.63,3.222c-2.23-6.556-6.963-11.121-12.494-11.121-3.956,0-7.505,2.347-10.033,6.074-4.246-6.838-10.489-11.176-17.465-11.176-7.316,0-13.829,4.769-18.075,12.19-2.545-4.292-6.338-7.088-10.634-7.088-.153,0-.3.06-.449.065-5.129-14.7-15.879-24.852-28.347-24.852-12.9,0-23.972,10.848-28.873,26.376a10.547,10.547,0,0,0-5.479-1.588c-6.632,0-12.158,6.528-13.532,15.241a11.352,11.352,0,0,0-7.977-3.574c-4.527,0-8.509,3.083-11.041,7.778Z" transform="translate(-2349.878 -345.515)" fill="#ebebeb"/>
      <g id="Group_5408" data-name="Group 5408" transform="translate(147.051 310.031)">
        <g id="Group_5406" data-name="Group 5406" transform="translate(0)">
          <g id="Group_5401" data-name="Group 5401">
            <path id="Path_4743" data-name="Path 4743" d="M2610.333,739.608c26.807-4.366,55.824-76.663,5.9-100.887s-66.755-37.057-77.191-93.478-45.93-29.639-37.932,3.382-45.3,28.921-56.419,44.671c-19.271,27.292,23.348,31.653,47.757,47.187s-19.154,26.166-1.831,52.451S2564.622,747.06,2610.333,739.608Z" transform="translate(-2439.832 -512.482)" fill="#c52e40"/>
            <g id="Group_5400" data-name="Group 5400" transform="translate(80.232 107.293)">
              <path id="Path_4744" data-name="Path 4744" d="M2533.577,669.249c-2.49-2.706-53.225-81.4-83.894-119.144" transform="translate(-2440.562 -550.105)" fill="none" stroke="#fff" stroke-miterlimit="10" stroke-width="1.177"/>
              <line id="Line_159" data-name="Line 159" x1="65.339" y1="14.042" transform="translate(0 64.127)" fill="none" stroke="#fff" stroke-miterlimit="10" stroke-width="1.177"/>
              <line id="Line_160" data-name="Line 160" x1="1.342" y1="36.215" transform="translate(37.44 3.513)" fill="none" stroke="#fff" stroke-miterlimit="10" stroke-width="1.177"/>
            </g>
          </g>
          <g id="Group_5403" data-name="Group 5403" transform="translate(122.621 64.881)">
            <path id="Path_4745" data-name="Path 4745" d="M2449.346,733.724s15.039-27.167-10.643-44.58-37.041-39.795-22.394-60.362,52.264-7.746,68.166-17.579,9.066-30.874,22.1-53.632c17.474-30.5,51.293-22.447,59.206-17.741s21.94,19.1,3.581,46.77-4.826,37.373,9.783,59.093-10.994,30.161-52.554,37.5-48.741,54.564-48.741,54.564l-28.509-4.03" transform="translate(-2409.833 -535.233)" fill="#df495b"/>
            <g id="Group_5402" data-name="Group 5402" transform="translate(25.369 29.708)">
              <path id="Path_4746" data-name="Path 4746" d="M2422.514,741.737s-6.244-102.458,84.568-196.087" transform="translate(-2397.802 -545.65)" fill="none" stroke="#fff" stroke-miterlimit="10" stroke-width="1.593"/>
              <path id="Path_4747" data-name="Path 4747" d="M2418.023,600.049s23.681-30.17,80.56-25" transform="translate(-2375.737 -492.306)" fill="none" stroke="#fff" stroke-miterlimit="10" stroke-width="1.593"/>
              <path id="Path_4748" data-name="Path 4748" d="M2481.743,626.659s11.645-43.411-35.93-57.445" transform="translate(-2445.812 -502.013)" fill="none" stroke="#fff" stroke-miterlimit="10" stroke-width="1.593"/>
            </g>
          </g>
          <g id="Group_5405" data-name="Group 5405" transform="translate(11.249 129.696)">
            <path id="Path_4749" data-name="Path 4749" d="M2512.5,677.6c-47.607,11.139-48.757-27.244-19.592-48.647,18.232-13.378-18.987-20.519-33.4-33.526-24.767-22.353,14.952-50.449,35.558-30.871s33.378,25.592,48.39,27.3,57.369,2.133,53.716,27.064c-2.278,15.54,12.24,28.812,10.258,44.383C2563.406,649.523,2537.308,671.8,2512.5,677.6Z" transform="translate(-2451.634 -557.96)" fill="#f5c9ce"/>
            <g id="Group_5404" data-name="Group 5404" transform="translate(39.796 37.765)">
              <path id="Path_4750" data-name="Path 4750" d="M2567.7,638.783s-63.743-44.267-116-67.58" transform="translate(-2451.695 -571.203)" fill="none" stroke="#fff" stroke-miterlimit="10" stroke-width="1.494"/>
              <line id="Line_161" data-name="Line 161" x1="5.974" y1="33.952" transform="translate(61.125 2.133)" fill="none" stroke="#fff" stroke-miterlimit="10" stroke-width="1.494"/>
              <line id="Line_162" data-name="Line 162" x1="67.603" y2="0.185" transform="translate(12.533 44.118)" fill="none" stroke="#fff" stroke-miterlimit="10" stroke-width="1.494"/>
            </g>
          </g>
        </g>
        <g id="Group_5407" data-name="Group 5407" transform="translate(89.242 225.932)">
          <path id="Path_4751" data-name="Path 4751" d="M2456.492,661.882h69.667l16.216-64.424h-102.1Z" transform="translate(-2429.373 -581.053)" fill="#383e43"/>
          <rect id="Rectangle_2848" data-name="Rectangle 2848" width="123.905" height="25.933" fill="#707070"/>
        </g>
      </g>
      <g id="Group_5409" data-name="Group 5409" transform="translate(751.135 335.656)">
        <path id="Path_4752" data-name="Path 4752" d="M2400.573,729.764c-4.957-11.37-16.879-14.81-22.717-25.073-10.443-18.369,7.123-23.1,9.21-35.312,2.78-16.253-9.552-14.79-15.918-24.686-7.487-11.638,5.185-25.407-2.586-36.458-19.317-27.469-50.754,2.709-71.236,9.057-12.551,3.887-31.325,5.521-41.2-1.862-13.038-9.753-26.039-32.346-12.228-45.387,19.459-18.38,12.323-27.794-8.717-32.445-9.318-2.062-13.581-8.63-3.245-16.13-15.708,21,36.691,1.874,46.016,16.13,6.475,9.9-1.514,15.745-3.764,23.351-5.764,19.473,8.7,36.227,38.856,16.729,17.341-11.211,15.879-31.179,34.272-36.267,17.191-4.751,37.177,9.5,43.5,28.61,6.257,18.919,13.682,28.618,35.72,26.465,26.182-2.555,46.371,12.454,34.661,34.134-10.378,19.221-39.133,8.3-53.716,19.318-16.183,12.229-11.149,29.072,9.792,44.868,6.5,4.908,16.5,12.229,13.923,20.587-1.67,5.421-12.12,14.028-18.852,14.254Z" transform="translate(-2225.927 -521.468)" fill="#fff" opacity="0.74"/>
        <path id="Path_4753" data-name="Path 4753" d="M2242.321,605.216h5.6v-7a5.628,5.628,0,0,1,5.835-5.4h66.26a5.628,5.628,0,0,1,5.835,5.4v42.872c0,16.233-14.222,29.391-31.766,29.391h-14.4c-13.935,0-25.746-8.313-30.028-19.863h-7.336c-5.6,0-10.147-4.2-10.147-9.391V614.6C2232.174,609.419,2236.717,605.216,2242.321,605.216Zm-3.662,36.007a3.539,3.539,0,0,0,3.662,3.388h5.847a27.21,27.21,0,0,1-.25-3.525v-29.87h-5.6a3.539,3.539,0,0,0-3.662,3.388Z" transform="translate(-2106.432 -389.342)" fill="#d13245"/>
        <path id="Path_4754" data-name="Path 4754" d="M2232.174,608.039a37.055,37.055,0,0,1,3.357-15.223h60.231a5.628,5.628,0,0,1,5.835,5.4v42.872a27.541,27.541,0,0,1-4.02,14.291c-.912.031-1.809.106-2.73.106C2260.232,655.482,2232.174,634.242,2232.174,608.039Z" transform="translate(-2082.181 -389.342)" fill="#df495b"/>
      </g>
      <g id="Group_5410" data-name="Group 5410" transform="translate(148.74 616.792)">
        <path id="Path_4755" data-name="Path 4755" d="M2223.586,662.23h839.155c8.975,0,16.25-6.733,16.25-15.038h0c0-8.3-7.275-15.038-16.25-15.038H2223.586c-8.975,0-16.253,6.733-16.253,15.038h0C2207.333,655.5,2214.61,662.23,2223.586,662.23Z" transform="translate(-2180.094 -597.627)" fill="#707070"/>
        <path id="Path_4756" data-name="Path 4756" d="M2221.427,662.484H3101.7c12.666,0,22.933-9.5,22.933-21.218h0c0-11.718-10.267-21.218-22.933-21.218H2221.427c-12.666,0-22.933,9.5-22.933,21.218h0C2198.495,652.984,2208.762,662.484,2221.427,662.484Z" transform="translate(-2198.495 -620.048)" fill="#434b52"/>
      </g>
      <g id="Group_5415" data-name="Group 5415" transform="translate(278.88 164.27)">
        <ellipse id="Ellipse_59" data-name="Ellipse 59" cx="52.556" cy="48.626" rx="52.556" ry="48.626" fill="#434b52"/>
        <ellipse id="Ellipse_60" data-name="Ellipse 60" cx="40.979" cy="37.915" rx="40.979" ry="37.915" transform="translate(11.577 10.711)" fill="#fff"/>
        <g id="Group_5411" data-name="Group 5411" transform="translate(37.492 25.828)">
          <line id="Line_163" data-name="Line 163" y1="22.798" transform="translate(15.064)" fill="none" stroke="#4b4583" stroke-linecap="round" stroke-linejoin="round" stroke-width="0.978"/>
          <line id="Line_164" data-name="Line 164" x1="15.064" y2="13.937" transform="translate(0 22.798)" fill="none" stroke="#4b4583" stroke-linecap="round" stroke-linejoin="round" stroke-width="0.978"/>
        </g>
        <g id="Group_5414" data-name="Group 5414" transform="translate(16.196 14.989)">
          <g id="Group_5413" data-name="Group 5413" transform="translate(0)">
            <g id="Group_5412" data-name="Group 5412">
              <line id="Line_165" data-name="Line 165" y1="4.501" transform="translate(36.362 62.762)" fill="none" stroke="#4b4583" stroke-linecap="round" stroke-linejoin="round" stroke-width="0.684"/>
              <line id="Line_166" data-name="Line 166" y1="3.904" x2="2.432" transform="translate(18.194 58.858)" fill="none" stroke="#4b4583" stroke-linecap="round" stroke-linejoin="round" stroke-width="0.684"/>
              <line id="Line_167" data-name="Line 167" y1="2.25" x2="4.219" transform="translate(4.89 48.203)" fill="none" stroke="#4b4583" stroke-linecap="round" stroke-linejoin="round" stroke-width="0.684"/>
              <line id="Line_168" data-name="Line 168" x2="4.89" transform="translate(0 33.643)" fill="none" stroke="#4b4583" stroke-linecap="round" stroke-linejoin="round" stroke-width="0.684"/>
              <line id="Line_169" data-name="Line 169" x2="4.195" y2="2.25" transform="translate(4.889 16.833)" fill="none" stroke="#4b4583" stroke-linecap="round" stroke-linejoin="round" stroke-width="0.684"/>
              <line id="Line_170" data-name="Line 170" x2="2.432" y2="3.881" transform="translate(18.194 4.524)" fill="none" stroke="#4b4583" stroke-linecap="round" stroke-linejoin="round" stroke-width="0.684"/>
              <line id="Line_171" data-name="Line 171" y1="4.524" transform="translate(36.362)" fill="none" stroke="#4b4583" stroke-linecap="round" stroke-linejoin="round" stroke-width="0.684"/>
              <line id="Line_172" data-name="Line 172" y1="3.904" x2="2.433" transform="translate(52.098 4.524)" fill="none" stroke="#4b4583" stroke-linecap="round" stroke-linejoin="round" stroke-width="0.684"/>
              <line id="Line_173" data-name="Line 173" y1="2.25" x2="4.195" transform="translate(63.641 16.833)" fill="none" stroke="#4b4583" stroke-linecap="round" stroke-linejoin="round" stroke-width="0.684"/>
              <line id="Line_174" data-name="Line 174" x2="4.865" transform="translate(67.835 33.643)" fill="none" stroke="#4b4583" stroke-linecap="round" stroke-linejoin="round" stroke-width="0.684"/>
              <line id="Line_175" data-name="Line 175" x2="4.22" y2="2.25" transform="translate(63.616 48.203)" fill="none" stroke="#4b4583" stroke-linecap="round" stroke-linejoin="round" stroke-width="0.684"/>
              <line id="Line_176" data-name="Line 176" x2="2.433" y2="3.904" transform="translate(52.098 58.858)" fill="none" stroke="#4b4583" stroke-linecap="round" stroke-linejoin="round" stroke-width="0.684"/>
            </g>
          </g>
        </g>
        <ellipse id="Ellipse_61" data-name="Ellipse 61" cx="2.378" cy="2.2" rx="2.378" ry="2.2" transform="translate(50.177 46.425)" fill="#4b4583"/>
      </g>
      <g id="Group_5417" data-name="Group 5417" transform="translate(722.444 129.675)">
        <path id="Path_4757" data-name="Path 4757" d="M2290.7,470.854c28.132-26.029,73.936-25.747,101.681.852,25.472,24.42,26.582,63.551,2.424,89.089-23.449,24.79-61.708,29.174-90.419,13.182a11.3,11.3,0,0,0-8.452-.944l-18.019,4.96a1.738,1.738,0,0,1-2.243-2.075l5.364-16.673A9.168,9.168,0,0,0,2280,551.4C2263.528,526.066,2267.082,492.7,2290.7,470.854Z" transform="translate(-2269.84 -451.543)" fill="#df495b"/>
        <g id="Group_5416" data-name="Group 5416" transform="translate(30.814 37.084)">
          <line id="Line_177" data-name="Line 177" x1="80.759" transform="translate(0)" fill="none" stroke="#fff" stroke-linecap="round" stroke-linejoin="round" stroke-width="1.665"/>
          <line id="Line_178" data-name="Line 178" x1="19.368" transform="translate(0 19.226)" fill="none" stroke="#fff" stroke-linecap="round" stroke-linejoin="round" stroke-width="1.665"/>
          <line id="Line_179" data-name="Line 179" x1="42.15" transform="translate(38.609 19.226)" fill="none" stroke="#fff" stroke-linecap="round" stroke-linejoin="round" stroke-width="1.665"/>
          <line id="Line_180" data-name="Line 180" x1="43.833" transform="translate(0 38.452)" fill="none" stroke="#fff" stroke-linecap="round" stroke-linejoin="round" stroke-width="1.665"/>
          <line id="Line_181" data-name="Line 181" x1="21.077" transform="translate(59.682 38.452)" fill="none" stroke="#fff" stroke-linecap="round" stroke-linejoin="round" stroke-width="1.665"/>
          <line id="Line_182" data-name="Line 182" x1="19.369" transform="translate(0 57.677)" fill="none" stroke="#fff" stroke-linecap="round" stroke-linejoin="round" stroke-width="1.665"/>
          <line id="Line_183" data-name="Line 183" x1="41.202" transform="translate(39.557 57.677)" fill="none" stroke="#fff" stroke-linecap="round" stroke-linejoin="round" stroke-width="1.665"/>
        </g>
      </g>
      <g id="Group_5423" data-name="Group 5423" transform="translate(362.031 115.007)">
        <g id="Group_5420" data-name="Group 5420">
          <path id="Path_4758" data-name="Path 4758" d="M2558.471,510.875s6.489-26.505-21.079-49.263-70.17-20.682-93.531-8.812c-30.269,15.377-59.989,56.076-32.825,114.217s-97.3,34.134-55.54,112.9,113.92,24.38,139.867,57.014,115.763-52.925,39.028-112.734S2552.661,564.641,2558.471,510.875Z" transform="translate(-2302.505 -444.097)" fill="#221b4c"/>
          <path id="Path_4759" data-name="Path 4759" d="M2351.21,529.031c31.5,12.42,57.572,86.265,60,243.807h-67.875S2302.1,509.664,2351.21,529.031Z" transform="translate(-2088.219 -288.701)" fill="#434b52"/>
          <path id="Path_4760" data-name="Path 4760" d="M2462.641,520.725c-37.225-3.4-97.9,2.321-119.711,24.6-4.808,4.914-4.834,14.122-2.256,26.862,9.111,45.011,50.729,134.085,28.611,233.472H2563.07s-18.379-77.661-8.106-102.167c11.74-28.019,21.906-53.344,10.341-76.746-26.326-53.29-2.75-75.349-19.431-83.054C2522.92,533.093,2494.128,523.6,2462.641,520.725Z" transform="translate(-2283.86 -303.877)" fill="#df495b"/>
          <path id="Path_4761" data-name="Path 4761" d="M2404.366,614.12c8.111,43.51,62.569,48.886,89.866,40.385,0,0-39.728,22.256-68.378,9.75,0,0-7.3,21.258,3.615,88.1h-35.635s.01-.134.022-.34c5.641-34.964,3.872-68.41-1.048-98.8A130.608,130.608,0,0,0,2389,632.868l-.056-.182c-4.516-21.315-10.166-40.79-15.237-57.8a176.366,176.366,0,0,1-2.992-34.288S2396.26,570.606,2404.366,614.12Z" transform="translate(-2305.566 -265.391)" fill="#d13245"/>
          <path id="Path_4762" data-name="Path 4762" d="M2385.511,599.129s33.847,38.468,50.217,28.051c21.678-13.8,39.516-13.546,53.84-5.633a49.374,49.374,0,0,1,20.541,22.418H2393.924l-33.816-27.078Z" transform="translate(-2288.739 -157.002)" fill="#f4ae98"/>
          <path id="Path_4763" data-name="Path 4763" d="M2448.549,534.251s-29.871,72.186-55.482,131.2c-20.677,47.64,104,112.557,104,112.557l20.591-25.533-71.8-73.643,43.917-85.681s25.457-46.733-13.2-63.3C2455.078,520.639,2448.549,534.251,2448.549,534.251Z" transform="translate(-2390.753 -291.217)" fill="#434b52"/>
          <path id="Path_4764" data-name="Path 4764" d="M2375.371,495.485s4.7,54.724-9.49,69.018c-18.244,18.38,13.784,58.015,61.894,88.022,0,0,26.89-27.632,5.81-72.642s-.651-70.435-.651-70.435Z" transform="translate(-2222.077 -348.935)" fill="#f4ae98"/>
          <path id="Path_4765" data-name="Path 4765" d="M2349.158,531.286c0,37.5,28.548,67.86,52.671,67.86s54.264-24.937,58.318-71.074c3.282-37.373-18.479-64.68-51.4-64.68S2349.158,493.79,2349.158,531.286Z" transform="translate(-2205.354 -408.367)" fill="#ffb99f"/>
          <path id="Path_4766" data-name="Path 4766" d="M2443.483,465.785c3.39,1.808,10.732,6.208,19.286,11.479,9.317,5.741,19.252,15.68,22.667,26.556,5.866,18.679-8.991,42.344-38.538,33.988s-43.674-52.214-67.648-26.862c-29.8,31.51-40.61,13.948-40.61,13.948s5.974-39.23,36.172-56.886C2390.991,458.55,2415.375,450.779,2443.483,465.785Z" transform="translate(-2199.162 -419.538)" fill="#221b4c"/>
          <g id="Group_5419" data-name="Group 5419" transform="translate(123.903 34.351)">
            <path id="Path_4767" data-name="Path 4767" d="M2380.4,496.845c0,12.234,7.814,22.15,17.453,22.15s17.455-9.916,17.455-22.15S2407.5,474.7,2397.856,474.7,2380.4,484.614,2380.4,496.845Z" transform="translate(-2380.403 -421.781)" fill="#df495b"/>
            <path id="Path_4768" data-name="Path 4768" d="M2402.295,457.384c26.85-4.782,52.739,4.6,67.318,22.133-16.087-10.167-37.161-14.6-58.764-10.746-35.663,6.354-60.926,33.153-61.762,62.906a50.518,50.518,0,0,1-1.642-5.949C2340.953,494.538,2365.51,463.938,2402.295,457.384Z" transform="translate(-2329.908 -456.143)" fill="#df495b"/>
            <g id="Group_5418" data-name="Group 5418" transform="translate(21.12 82.294)">
              <path id="Path_4769" data-name="Path 4769" d="M2370.408,485s-4.865,50.056,44.866,54.807" transform="translate(-2370.278 -484.999)" fill="none" stroke="#df495b" stroke-miterlimit="10" stroke-width="1.052"/>
              <path id="Path_4770" data-name="Path 4770" d="M2369.785,511.491h7.838a4.435,4.435,0,0,0,4.6-4.252h0a4.434,4.434,0,0,0-4.6-4.249h-7.838a4.431,4.431,0,0,0-4.593,4.249h0A4.431,4.431,0,0,0,2369.785,511.491Z" transform="translate(-2321.546 -451.682)" fill="#df495b"/>
            </g>
          </g>
        </g>
        <g id="Group_5422" data-name="Group 5422" transform="translate(69.939 316.095)">
          <g id="Group_5421" data-name="Group 5421" transform="translate(0 170.694)">
            <rect id="Rectangle_2849" data-name="Rectangle 2849" width="296.534" height="14.997" rx="2.317" fill="#434b52"/>
          </g>
          <path id="Path_4771" data-name="Path 4771" d="M2271.692,740.625h260.67c7.083,0,13.411-4.1,15.833-10.258l60.784-154.51c4-10.17-4.14-20.921-15.834-20.921H2332.473c-7.083,0-13.411,4.1-15.834,10.258L2255.857,719.7C2251.857,729.874,2259.994,740.625,2271.692,740.625Z" transform="translate(-2134.07 -554.936)" fill="#7e7e7e"/>
          <path id="Path_4772" data-name="Path 4772" d="M2601.393,555.954c-.981,91.322-133.17,165.188-296.112,165.188-15.972,0-31.646-.719-46.934-2.088l60.525-153.86c2.423-6.16,8.75-10.258,15.833-10.258h260.674A18.108,18.108,0,0,1,2601.393,555.954Z" transform="translate(-2136.303 -554.936)" fill="#707070"/>
          <path id="Path_4773" data-name="Path 4773" d="M2304.777,598.269c0,10.081,8.834,18.255,19.73,18.255s19.73-8.173,19.73-18.255-8.834-18.255-19.73-18.255S2304.777,588.185,2304.777,598.269Z" transform="translate(-2022.261 -508.495)" fill="#df495b"/>
        </g>
      </g>
      <g id="Group_5425" data-name="Group 5425" transform="translate(368.698 31.671)">
        <path id="Path_4774" data-name="Path 4774" d="M2470.385,422.642c-15.161-14.027-39.844-13.874-54.8.461a33.756,33.756,0,0,0-1.308,48.009c12.64,13.361,33.257,15.724,48.729,7.107a6.093,6.093,0,0,1,4.557-.511l9.708,2.673a.937.937,0,0,0,1.21-1.118l-2.892-8.984a4.934,4.934,0,0,1,.56-4.226C2485.03,452.4,2483.112,434.417,2470.385,422.642Z" transform="translate(-2404.892 -412.236)" fill="#df495b"/>
        <g id="Group_5424" data-name="Group 5424" transform="translate(10.867 29.792)">
          <ellipse id="Ellipse_62" data-name="Ellipse 62" cx="6.199" cy="5.736" rx="6.199" ry="5.736" transform="translate(42.601)" fill="#fff"/>
          <ellipse id="Ellipse_63" data-name="Ellipse 63" cx="6.199" cy="5.736" rx="6.199" ry="5.736" transform="translate(21.301)" fill="#fff"/>
          <ellipse id="Ellipse_64" data-name="Ellipse 64" cx="6.199" cy="5.736" rx="6.199" ry="5.736" fill="#fff"/>
        </g>
      </g>
      <g id="Group_5426" data-name="Group 5426" transform="translate(240.851 35.481)">
        <line id="Line_184" data-name="Line 184" x1="6.644" y2="6.148" fill="none" stroke="#4b4583" stroke-linecap="round" stroke-linejoin="round" stroke-width="1"/>
        <line id="Line_185" data-name="Line 185" x2="6.644" y2="6.148" fill="none" stroke="#4b4583" stroke-linecap="round" stroke-linejoin="round" stroke-width="1"/>
      </g>
      <g id="Group_5427" data-name="Group 5427" transform="translate(1047.006 335.889)">
        <line id="Line_186" data-name="Line 186" x1="13.289" y2="12.295" fill="none" stroke="#4b4583" stroke-linecap="round" stroke-linejoin="round" stroke-width="2"/>
        <line id="Line_187" data-name="Line 187" x2="13.289" y2="12.295" fill="none" stroke="#4b4583" stroke-linecap="round" stroke-linejoin="round" stroke-width="2"/>
      </g>
      <g id="Group_5428" data-name="Group 5428" transform="translate(687.408 291.461)">
        <line id="Line_188" data-name="Line 188" x1="9.289" y2="8.594" fill="none" stroke="#4b4583" stroke-linecap="round" stroke-linejoin="round" stroke-width="1.398"/>
        <line id="Line_189" data-name="Line 189" x2="9.289" y2="8.594" fill="none" stroke="#4b4583" stroke-linecap="round" stroke-linejoin="round" stroke-width="1.398"/>
      </g>
      <g id="Group_5429" data-name="Group 5429" transform="translate(181.162 592.631)">
        <line id="Line_190" data-name="Line 190" x1="9.289" y2="8.594" fill="none" stroke="#4b4583" stroke-linecap="round" stroke-linejoin="round" stroke-width="1.398"/>
        <line id="Line_191" data-name="Line 191" x2="9.289" y2="8.594" fill="none" stroke="#4b4583" stroke-linecap="round" stroke-linejoin="round" stroke-width="1.398"/>
      </g>
      <path id="Path_4775" data-name="Path 4775" d="M2371.975,430.753a5.712,5.712,0,1,0,5.693-5.267A5.493,5.493,0,0,0,2371.975,430.753Z" transform="translate(-1832.553 -363.556)" fill="none" stroke="#4b4583" stroke-linecap="round" stroke-linejoin="round" stroke-width="1.398"/>
      <path id="Path_4776" data-name="Path 4776" d="M2269,506.412a5.712,5.712,0,1,0,5.693-5.27A5.493,5.493,0,0,0,2269,506.412Z" transform="translate(-1421.175 -223.452)" fill="none" stroke="#4b4583" stroke-linecap="round" stroke-linejoin="round" stroke-width="1.398"/>
      <path id="Path_4777" data-name="Path 4777" d="M2493.154,483.034a5.713,5.713,0,1,0,5.7-5.267A5.5,5.5,0,0,0,2493.154,483.034Z" transform="translate(-2313.04 -266.739)" fill="none" stroke="#4b4583" stroke-linecap="round" stroke-linejoin="round" stroke-width="1.398"/>
      <path id="Path_4778" data-name="Path 4778" d="M2205.268,591.545c0,6.9,6.047,12.494,13.507,12.494s13.507-5.592,13.507-12.494-6.048-12.5-13.507-12.5S2205.268,584.643,2205.268,591.545Z" transform="translate(-1185.121 -79.182)" fill="none" stroke="#4b4583" stroke-linecap="round" stroke-linejoin="round" stroke-width="1.398"/>
      <path id="Path_4779" data-name="Path 4779" d="M2446.463,536.241c0,6.9,6.047,12.5,13.507,12.5s13.506-5.6,13.506-12.5-6.047-12.5-13.506-12.5S2446.463,529.339,2446.463,536.241Z" transform="translate(-2145.468 -181.597)" fill="none" stroke="#4b4583" stroke-linecap="round" stroke-linejoin="round" stroke-width="1.398"/>
    </g>
  </g>
</svg>
