<svg xmlns="http://www.w3.org/2000/svg" width="139.904" height="42.898" viewBox="0 0 139.904 42.898">
  <g id="Group_2786" data-name="Group 2786" transform="translate(17132.609 21247.369)">
    <path id="Path_1135" data-name="Path 1135" d="M886.115,591.548a5.167,5.167,0,0,0-1.162-.937,2.382,2.382,0,0,0-.343-.186,3.732,3.732,0,0,0,1.585-.66,1.593,1.593,0,0,0,.726-1.319,1.463,1.463,0,0,0-.554-1.144,3.277,3.277,0,0,0-1.44-.639,10.34,10.34,0,0,0-2.219-.175h-2.232v7.676h1.677v-3.534l.238.01c2.483,0,3.817,3.091,3.949,3.524h1.452a12.386,12.386,0,0,0-1.677-2.617M884,589.971c-.132.031-.277.073-.435.1a2.541,2.541,0,0,1-.475.062h-.938v-3.091l.423.01c1.11,0,1.783.1,2.047.36a1.441,1.441,0,0,1,.462,1.133,1.726,1.726,0,0,1-.132.69,1.217,1.217,0,0,1-.357.433,1.671,1.671,0,0,1-.594.3" transform="translate(-17973.303 -21798.648)" fill="#040504"/>
    <path id="Path_1136" data-name="Path 1136" d="M919.981,587.508a5.406,5.406,0,0,0-3.381-1.02,5.247,5.247,0,0,0-3.355,1.03,3.24,3.24,0,0,0-1.465,2.751,3.324,3.324,0,0,0,1.453,2.823,5.093,5.093,0,0,0,3.38,1.071,5.178,5.178,0,0,0,3.435-1.071,3.333,3.333,0,0,0,1.425-2.782,3.257,3.257,0,0,0-1.492-2.8m-1.11,5.317a2.836,2.836,0,0,1-2.166.814,2.721,2.721,0,0,1-2.2-.814,3.39,3.39,0,0,1-.846-2.514,3.327,3.327,0,0,1,.846-2.483,2.569,2.569,0,0,1,2.1-.824,2.9,2.9,0,0,1,2.285.845,4.732,4.732,0,0,1-.013,4.977" transform="translate(-17992.73 -21798.648)" fill="#040504"/>
    <path id="Path_1137" data-name="Path 1137" d="M960.124,587.508a5.406,5.406,0,0,0-3.381-1.02,5.246,5.246,0,0,0-3.355,1.03,3.241,3.241,0,0,0-1.466,2.751,3.324,3.324,0,0,0,1.453,2.823,5.1,5.1,0,0,0,3.381,1.071,5.176,5.176,0,0,0,3.434-1.071,3.331,3.331,0,0,0,1.426-2.782,3.257,3.257,0,0,0-1.492-2.8m-1.11,5.317a2.838,2.838,0,0,1-2.166.814,2.72,2.72,0,0,1-2.2-.814,3.389,3.389,0,0,1-.846-2.514,3.326,3.326,0,0,1,.846-2.483,2.568,2.568,0,0,1,2.1-.824,2.9,2.9,0,0,1,2.284.845,4.732,4.732,0,0,1-.012,4.977" transform="translate(-18017.643 -21798.648)" fill="#040504"/>
    <path id="Path_1138" data-name="Path 1138" d="M1000.909,594.165v-6.233l-3.526,6.233h-.542l-3.5-6.233v6.233h-.647v-7.676h1.584l3.381,5.955,3.367-5.955h1.585v7.676Z" transform="translate(-18042.947 -21798.648)" fill="#040504"/>
    <path id="Path_1139" data-name="Path 1139" d="M1036.127,594.19a4.279,4.279,0,0,1-2.733-1.412l.475-.412a3.167,3.167,0,0,0,2.219,1.309,2.106,2.106,0,0,0,1.413-.268,1.2,1.2,0,0,0,.594-.824.931.931,0,0,0-.3-.835,5.468,5.468,0,0,0-1.532-.876,11.82,11.82,0,0,1-1.571-.783,2.17,2.17,0,0,1-.819-.835,1.562,1.562,0,0,1-.2-1.02,1.777,1.777,0,0,1,.911-1.3,3.066,3.066,0,0,1,1.888-.381,3.968,3.968,0,0,1,1.123.248,3.082,3.082,0,0,1,1.109.834l-.555.351a2.668,2.668,0,0,0-.343-.381,2.2,2.2,0,0,0-1.321-.546,1.681,1.681,0,0,0-1.109.206.967.967,0,0,0-.423.639.85.85,0,0,0,.317.773,6.417,6.417,0,0,0,1.545.886q1.129.51,1.625.8a2.1,2.1,0,0,1,.805.8,1.783,1.783,0,0,1,.2,1.113,2.03,2.03,0,0,1-1.043,1.493,3.719,3.719,0,0,1-2.272.412" transform="translate(-18068.205 -21798.684)" fill="#040504"/>
    <path id="Path_1140" data-name="Path 1140" d="M853.555,598.9h-5a.434.434,0,1,1,0-.843h5a.434.434,0,1,1,0,.843" transform="translate(-17953.156 -21806.789)" fill="#040504"/>
    <path id="Path_1141" data-name="Path 1141" d="M1067.952,598.9h-5a.434.434,0,1,1,0-.843h5a.434.434,0,1,1,0,.843" transform="translate(-18086.215 -21806.789)" fill="#040504"/>
    <path id="Path_1142" data-name="Path 1142" d="M942.153,482.413a8.016,8.016,0,0,1,3.063,3.06,6.767,6.767,0,0,1,.754,4.233,7.717,7.717,0,0,1-3.97,5.685,14.144,14.144,0,0,1-8.642,1.567,16.3,16.3,0,0,1-10.4-5.37l1.809-1.569c3.115,3.45,5.026,4.548,8.442,4.979a8.008,8.008,0,0,0,5.378-1.019,4.564,4.564,0,0,0,2.261-3.137,3.538,3.538,0,0,0-1.157-3.174,20.828,20.828,0,0,0-5.829-3.332,44.831,44.831,0,0,1-5.98-2.981,8.266,8.266,0,0,1-3.115-3.175,5.925,5.925,0,0,1-.753-3.881,6.758,6.758,0,0,1,3.466-4.941,11.672,11.672,0,0,1,7.187-1.45,15.007,15.007,0,0,1,4.271.939,11.743,11.743,0,0,1,4.221,3.177l-2.111,1.333a10.412,10.412,0,0,0-1.305-1.451,8.381,8.381,0,0,0-5.025-2.076,6.4,6.4,0,0,0-4.221.783,3.668,3.668,0,0,0-1.609,2.43,3.234,3.234,0,0,0,1.207,2.942,24.533,24.533,0,0,0,5.878,3.369q4.3,1.942,6.182,3.058" transform="translate(-17999.666 -21715.125)" fill="#df495b"/>
    <path id="Path_1143" data-name="Path 1143" d="M1015.685,467.534v1.921h-12.738v27.287h-6.432V469.454H983.928v-1.921Z" transform="translate(-18037.506 -21714.902)" fill="#df495b"/>
    <path id="Path_1144" data-name="Path 1144" d="M809.175,469.23,794.36,496.743H791.9l-16.28-29.207h6.632l12.864,22.935,11.962-22.935h17.031v1.694Z" transform="translate(-17908.227 -21714.902)" fill="#df495b"/>
    <rect id="Rectangle_2518" data-name="Rectangle 2518" width="6.432" height="24.339" transform="translate(-17090.551 -21242.5)" fill="#df495b"/>
    <path id="Path_1145" data-name="Path 1145" d="M1090.045,496.74h-6.984c-2.059-4-11.81-22.386-11.81-22.386l-11.207,22.386h-3.216l15.478-29.207h1.86Z" transform="translate(-18082.75 -21714.9)" fill="#df495b"/>
  </g>
</svg>
